
G21
G90
G94
F200.00
G00 Z2.0000
M03
G00 X74.0000Y13.5000
G01 Z-2.0000
G01 Z0
G00 Z2.0000
G00 X74.0000Y11.0000
G01 Z-2.0000
G01 Z0
G00 Z2.0000
G00 X74.0000Y8.5000
G01 Z-2.0000
G01 Z0
G00 Z2.0000
G00 X70.0000Y72.5000
G01 Z-2.0000
G01 Z0
G00 Z2.0000
G00 X70.0000Y70.0000
G01 Z-2.0000
G01 Z0
G00 Z2.0000
G00 X70.0000Y67.5000
G01 Z-2.0000
G01 Z0
G00 Z2.0000
G00 X70.0000Y65.0000
G01 Z-2.0000
G01 Z0
G00 Z2.0000
G00 X60.0000Y14.0400
G01 Z-2.0000
G01 Z0
G00 Z2.0000
G00 X60.0000Y8.9600
G01 Z-2.0000
G01 Z0
G00 Z2.0000
G00 X44.0000Y39.0000
G01 Z-2.0000
G01 Z0
G00 Z2.0000
G00 X44.0000Y33.9200
G01 Z-2.0000
G01 Z0
G00 Z2.0000
G00 X37.7670Y41.5000
G01 Z-2.0000
G01 Z0
G00 Z2.0000
G00 X37.7670Y39.0000
G01 Z-2.0000
G01 Z0
G00 Z2.0000
G00 X37.7670Y36.5000
G01 Z-2.0000
G01 Z0
G00 Z2.0000
G00 X37.7670Y34.0000
G01 Z-2.0000
G01 Z0
G00 Z2.0000
G00 X37.7670Y31.5000
G01 Z-2.0000
G01 Z0
G00 Z2.0000
G00 X37.7500Y25.3250
G01 Z-2.0000
G01 Z0
G00 Z2.0000
G00 X37.7500Y22.8250
G01 Z-2.0000
G01 Z0
G00 Z2.0000
G00 X37.7500Y20.3250
G01 Z-2.0000
G01 Z0
G00 Z2.0000
G00 X37.7500Y17.8250
G01 Z-2.0000
G01 Z0
G00 Z2.0000
G00 X32.5000Y50.0800
G01 Z-2.0000
G01 Z0
G00 Z2.0000
G00 X32.5000Y45.0000
G01 Z-2.0000
G01 Z0
G00 Z2.0000
G00 X32.5000Y34.0000
G01 Z-2.0000
G01 Z0
G00 Z2.0000
G00 X32.5000Y28.9200
G01 Z-2.0000
G01 Z0
G00 Z2.0000
G00 X18.5000Y41.0000
G01 Z-2.0000
G01 Z0
G00 Z2.0000
G00 X18.5000Y34.0000
G01 Z-2.0000
G01 Z0
G00 Z2.0000
G00 X16.0000Y41.0000
G01 Z-2.0000
G01 Z0
G00 Z2.0000
G00 X13.5000Y41.0000
G01 Z-2.0000
G01 Z0
G00 Z2.0000
G00 X11.0000Y41.0000
G01 Z-2.0000
G01 Z0
G00 Z2.0000
G00 X9.0000Y34.0000
G01 Z-2.0000
G01 Z0
G00 Z2.0000
G00 X8.5000Y41.0000
G01 Z-2.0000
G01 Z0
G00 Z2.0000
G00 X6.0000Y41.0000
G01 Z-2.0000
G01 Z0
G00 Z2.0000
G00 X67.7070Y41.3920
G01 Z-2.0000
G01 Z0
G00 Z2.0000
G00 X67.7070Y18.5320
G01 Z-2.0000
G01 Z0
G00 Z2.0000
G00 X65.1670Y41.3920
G01 Z-2.0000
G01 Z0
G00 Z2.0000
G00 X65.1670Y18.5320
G01 Z-2.0000
G01 Z0
G00 Z2.0000
G00 X62.6270Y41.3920
G01 Z-2.0000
G01 Z0
G00 Z2.0000
G00 X62.6270Y18.5320
G01 Z-2.0000
G01 Z0
G00 Z2.0000
G00 X60.0870Y41.3920
G01 Z-2.0000
G01 Z0
G00 Z2.0000
G00 X60.0870Y18.5320
G01 Z-2.0000
G01 Z0
G00 Z2.0000
G00 X57.5470Y41.3920
G01 Z-2.0000
G01 Z0
G00 Z2.0000
G00 X57.5470Y18.5320
G01 Z-2.0000
G01 Z0
G00 Z2.0000
G00 X55.0070Y41.3920
G01 Z-2.0000
G01 Z0
G00 Z2.0000
G00 X55.0070Y18.5320
G01 Z-2.0000
G01 Z0
G00 Z2.0000
G00 X52.4670Y41.3920
G01 Z-2.0000
G01 Z0
G00 Z2.0000
G00 X52.4670Y18.5320
G01 Z-2.0000
G01 Z0
G00 Z2.0000
G00 X49.9270Y41.3920
G01 Z-2.0000
G01 Z0
G00 Z2.0000
G00 X49.9270Y18.5320
G01 Z-2.0000
G01 Z0
G00 Z2.0000
G00 X0.0000Y0.0000
M05
M30