%TF.GenerationSoftware,KiCad,Pcbnew,7.0.10-7.0.10~ubuntu22.04.1*%
%TF.CreationDate,2024-02-14T18:03:32+03:00*%
%TF.ProjectId,Weather station,57656174-6865-4722-9073-746174696f6e,rev?*%
%TF.SameCoordinates,PX7270e00PY7088980*%
%TF.FileFunction,Profile,NP*%
%FSLAX46Y46*%
G04 Gerber Fmt 4.6, Leading zero omitted, Abs format (unit mm)*
G04 Created by KiCad (PCBNEW 7.0.10-7.0.10~ubuntu22.04.1) date 2024-02-14 18:03:32*
%MOMM*%
%LPD*%
G01*
G04 APERTURE LIST*
%TA.AperFunction,Profile*%
%ADD10C,0.100000*%
%TD*%
G04 APERTURE END LIST*
D10*
X0Y80500000D02*
X80500000Y80500000D01*
X80500000Y0D01*
X0Y0D01*
X0Y80500000D01*
M02*
