M48
; DRILL file {KiCad 7.0.10-7.0.10~ubuntu22.04.1} date Ср 14 фев 2024 18:03:43
; FORMAT={-:-/ absolute / metric / decimal}
; #@! TF.CreationDate,2024-02-14T18:03:43+03:00
; #@! TF.GenerationSoftware,Kicad,Pcbnew,7.0.10-7.0.10~ubuntu22.04.1
; #@! TF.FileFunction,Plated,1,2,PTH
FMAT,2
METRIC
; #@! TA.AperFunction,Plated,PTH,ComponentDrill
T1C0.950
; #@! TA.AperFunction,Plated,PTH,ComponentDrill
T2C1.000
%
G90
G05
T1
X6.5Y13.5
X6.5Y11.0
X6.5Y8.5
X10.5Y72.5
X10.5Y70.0
X10.5Y67.5
X10.5Y65.0
X20.5Y14.04
X20.5Y8.96
X36.5Y39.0
X36.5Y33.92
X42.733Y41.5
X42.733Y39.0
X42.733Y36.5
X42.733Y34.0
X42.733Y31.5
X42.75Y25.325
X42.75Y22.825
X42.75Y20.325
X42.75Y17.825
X48.0Y50.08
X48.0Y45.0
X48.0Y34.0
X48.0Y28.92
X62.0Y41.0
X62.0Y34.0
X64.5Y41.0
X67.0Y41.0
X69.5Y41.0
X71.5Y34.0
X72.0Y41.0
X74.5Y41.0
T2
X12.793Y41.392
X12.793Y18.532
X15.333Y41.392
X15.333Y18.532
X17.873Y41.392
X17.873Y18.532
X20.413Y41.392
X20.413Y18.532
X22.953Y41.392
X22.953Y18.532
X25.493Y41.392
X25.493Y18.532
X28.033Y41.392
X28.033Y18.532
X30.573Y41.392
X30.573Y18.532
M30
